data17_13TeV.periodB.physics_Main.PhysCont.DAOD_STDM4.grp15_v11_p3372_p3388_p3402
data17_13TeV.periodC.physics_Main.PhysCont.DAOD_STDM4.grp15_v11_p3372_p3388_p3402
data17_13TeV.periodD.physics_Main.PhysCont.DAOD_STDM4.grp15_v11_p3372_p3388_p3402
data17_13TeV.periodE.physics_Main.PhysCont.DAOD_STDM4.grp15_v11_p3372_p3388_p3402
data17_13TeV.periodF.physics_Main.PhysCont.DAOD_STDM4.grp15_v11_p3372_p3388_p3402
data17_13TeV.periodH.physics_Main.PhysCont.DAOD_STDM4.grp15_v11_p3372_p3388_p3402
data17_13TeV.periodI.physics_Main.PhysCont.DAOD_STDM4.grp15_v11_p3372_p3388_p3402
data17_13TeV.periodK.physics_Main.PhysCont.DAOD_STDM4.grp15_v11_p3372_p3388_p3402
data17_13TeV.periodK.physics_Main.PhysCont.DAOD_STDM4.grp15_v99_p3372_p3388_p3402
