##### Start usable data here ######
## Period A ##
#data16_13TeV.00297730.physics_Main.merge.DAOD_EXOT2.f694_m1583_p2667
##data16_13TeV.00298591.physics_Main.merge.DAOD_EXOT2.f695_m1588_p2667
#data16_13TeV.00298595.physics_Main.merge.DAOD_EXOT2.f698_m1594_p2667
#data16_13TeV.00298609.physics_Main.merge.DAOD_EXOT2.f698_m1594_p2667
#data16_13TeV.00298633.physics_Main.merge.DAOD_EXOT2.f698_m1594_p2667
#data16_13TeV.00298687.physics_Main.merge.DAOD_EXOT2.f698_m1594_p2667
#data16_13TeV.00298690.physics_Main.merge.DAOD_EXOT2.f698_m1594_p2667
#data16_13TeV.00298771.physics_Main.merge.DAOD_EXOT2.f698_m1594_p2667
#data16_13TeV.00298773.physics_Main.merge.DAOD_EXOT2.f698_m1594_p2667
#data16_13TeV.00298862.physics_Main.merge.DAOD_EXOT2.f696_m1588_p2667
#data16_13TeV.00298967.physics_Main.merge.DAOD_EXOT2.f696_m1588_p2667
#data16_13TeV.00299055.physics_Main.merge.DAOD_EXOT2.f698_m1594_p2667
#data16_13TeV.00299144.physics_Main.merge.DAOD_EXOT2.f698_m1594_p2667
#data16_13TeV.00299147.physics_Main.merge.DAOD_EXOT2.f698_m1594_p2667
#data16_13TeV.00299184.physics_Main.merge.DAOD_EXOT2.f698_m1594_p2667
#data16_13TeV.00299241.physics_Main.merge.DAOD_EXOT2.f698_m1594_p2667
#data16_13TeV.00299243.physics_Main.merge.DAOD_EXOT2.f698_m1594_p2667
##data16_13TeV.00299288.physics_Main.merge.DAOD_EXOT2.f698_m1594_p2667
#data16_13TeV.00299315.physics_Main.merge.DAOD_EXOT2.f701_m1594_p2667
#data16_13TeV.00299340.physics_Main.merge.DAOD_EXOT2.f698_m1594_p2667
#data16_13TeV.00299343.physics_Main.merge.DAOD_EXOT2.f698_m1594_p2667
#data16_13TeV.00299390.physics_Main.merge.DAOD_EXOT2.f701_m1594_p2667
#data16_13TeV.00299584.physics_Main.merge.DAOD_EXOT2.f703_m1600_p2667
#data16_13TeV.00300279.physics_Main.merge.DAOD_EXOT2.f705_m1606_p2667
## Period B ##
##data16_13TeV.00300287.physics_Main.merge.DAOD_EXOT2.f706_m1606_p2667
#data16_13TeV.00300345.physics_Main.merge.DAOD_EXOT2.f705_m1606_p2667
#data16_13TeV.00300415.physics_Main.merge.DAOD_EXOT2.f705_m1606_p2667
#data16_13TeV.00300418.physics_Main.merge.DAOD_EXOT2.f705_m1606_p2667
#data16_13TeV.00300487.physics_Main.merge.DAOD_EXOT2.f705_m1606_p2667
#data16_13TeV.00300540.physics_Main.merge.DAOD_EXOT2.f705_m1606_p2667
#data16_13TeV.00300571.physics_Main.merge.DAOD_EXOT2.f705_m1606_p2667
#data16_13TeV.00300600.physics_Main.merge.DAOD_EXOT2.f708_m1606_p2667
#data16_13TeV.00300655.physics_Main.merge.DAOD_EXOT2.f708_m1606_p2667
#data16_13TeV.00300687.physics_Main.merge.DAOD_EXOT2.f708_m1606_p2667
#data16_13TeV.00300784.physics_Main.merge.DAOD_EXOT2.f708_m1606_p2667
#data16_13TeV.00300800.physics_Main.merge.DAOD_EXOT2.f708_m1606_p2667
#data16_13TeV.00300863.physics_Main.merge.DAOD_EXOT2.f708_m1606_p2667
#data16_13TeV.00300908.physics_Main.merge.DAOD_EXOT2.f708_m1606_p2667
#data16_13TeV.00301912.physics_Main.merge.DAOD_EXOT2.f709_m1611_p2667
##data16_13TeV.00301915.physics_Main.merge.DAOD_EXOT2.f709_m1611_p2667
#data16_13TeV.00301918.physics_Main.merge.DAOD_EXOT2.f709_m1611_p2667
#data16_13TeV.00301932.physics_Main.merge.DAOD_EXOT2.f709_m1611_p2667
#data16_13TeV.00301973.physics_Main.merge.DAOD_EXOT2.f709_m1611_p2667
### Period C ##
#data16_13TeV.00302053.physics_Main.merge.DAOD_EXOT2.f709_m1611_p2689
#data16_13TeV.00302137.physics_Main.merge.DAOD_EXOT2.f709_m1620_p2689
#data16_13TeV.00302265.physics_Main.merge.DAOD_EXOT2.f709_m1620_p2689
#data16_13TeV.00302269.physics_Main.merge.DAOD_EXOT2.f709_m1620_p2689
#data16_13TeV.00302300.physics_Main.merge.DAOD_EXOT2.f711_m1620_p2689
#data16_13TeV.00302347.physics_Main.merge.DAOD_EXOT2.f711_m1620_p2689
#data16_13TeV.00302380.physics_Main.merge.DAOD_EXOT2.f711_m1620_p2689
#data16_13TeV.00302391.physics_Main.merge.DAOD_EXOT2.f711_m1620_p2689
#data16_13TeV.00302393.physics_Main.merge.DAOD_EXOT2.f711_m1620_p2689
### Period D ##
#data16_13TeV.00302737.physics_Main.merge.DAOD_EXOT2.f711_m1620_p2689
##data16_13TeV.00302829.physics_Main.merge.DAOD_EXOT2.f711_m1620_p2689
#data16_13TeV.00302831.physics_Main.merge.DAOD_EXOT2.f711_m1620_p2689
#data16_13TeV.00302872.physics_Main.merge.DAOD_EXOT2.f715_m1620_p2689
#data16_13TeV.00302919.physics_Main.merge.DAOD_EXOT2.f715_m1620_p2689
#data16_13TeV.00302925.physics_Main.merge.DAOD_EXOT2.f715_m1620_p2689
#data16_13TeV.00302956.physics_Main.merge.DAOD_EXOT2.f715_m1620_p2689
#data16_13TeV.00303007.physics_Main.merge.DAOD_EXOT2.f715_m1620_p2689
##data16_13TeV.00303059.physics_Main.merge.DAOD_EXOT2.f715_m1620_p2689
#data16_13TeV.00303079.physics_Main.merge.DAOD_EXOT2.f715_m1620_p2689
#data16_13TeV.00303201.physics_Main.merge.DAOD_EXOT2.f715_m1620_p2689
#data16_13TeV.00303208.physics_Main.merge.DAOD_EXOT2.f715_m1620_p2689
#data16_13TeV.00303264.physics_Main.merge.DAOD_EXOT2.f715_m1620_p2689
#data16_13TeV.00303266.physics_Main.merge.DAOD_EXOT2.f715_m1620_p2689
#data16_13TeV.00303291.physics_Main.merge.DAOD_EXOT2.f716_m1620_p2689
#data16_13TeV.00303304.physics_Main.merge.DAOD_EXOT2.f716_m1620_p2689
#data16_13TeV.00303338.physics_Main.merge.DAOD_EXOT2.f716_m1620_p2689
#data16_13TeV.00303421.physics_Main.merge.DAOD_EXOT2.f716_m1620_p2689
#data16_13TeV.00303499.physics_Main.merge.DAOD_EXOT2.f716_m1620_p2689
#data16_13TeV.00303560.physics_Main.merge.DAOD_EXOT2.f716_m1620_p2689
### Period E ##
#data16_13TeV.00303638.physics_Main.merge.DAOD_EXOT2.f716_m1620_p2689
#data16_13TeV.00303832.physics_Main.merge.DAOD_EXOT2.f716_m1620_p2689
#data16_13TeV.00303846.physics_Main.merge.DAOD_EXOT2.f716_m1620_p2689
#data16_13TeV.00303892.physics_Main.merge.DAOD_EXOT2.f716_m1620_p2689
### Period F ##
#data16_13TeV.00303943.physics_Main.merge.DAOD_EXOT2.f716_m1620_p2689
#data16_13TeV.00304006.physics_Main.merge.DAOD_EXOT2.f716_m1620_p2689
#data16_13TeV.00304008.physics_Main.merge.DAOD_EXOT2.f716_m1620_p2689
#data16_13TeV.00304128.physics_Main.merge.DAOD_EXOT2.f716_m1620_p2689
#data16_13TeV.00304178.physics_Main.merge.DAOD_EXOT2.f716_m1620_p2689
#data16_13TeV.00304198.physics_Main.merge.DAOD_EXOT2.f716_m1620_p2689
#data16_13TeV.00304211.physics_Main.merge.DAOD_EXOT2.f716_m1620_p2689
#data16_13TeV.00304243.physics_Main.merge.DAOD_EXOT2.f716_m1620_p2689
#data16_13TeV.00304308.physics_Main.merge.DAOD_EXOT2.f716_m1620_p2689
#data16_13TeV.00304337.physics_Main.merge.DAOD_EXOT2.f716_m1620_p2689
#data16_13TeV.00304409.physics_Main.merge.DAOD_EXOT2.f716_m1620_p2689
#data16_13TeV.00304431.physics_Main.merge.DAOD_EXOT2.f716_m1620_p2689
#data16_13TeV.00304494.physics_Main.merge.DAOD_EXOT2.f716_m1620_p2689
### Period G ##
#data16_13TeV.00305380.physics_Main.merge.DAOD_EXOT2.f727_m1646_p2769
data16_13TeV.00305543.physics_Main.merge.DAOD_EXOT2.f729_m1646_p2769
#data16_13TeV.00305571.physics_Main.merge.DAOD_EXOT2.f729_m1646_p2769
#data16_13TeV.00305618.physics_Main.merge.DAOD_EXOT2.f729_m1646_p2769
#data16_13TeV.00305671.physics_Main.merge.DAOD_EXOT2.f729_m1646_p2769
#data16_13TeV.00305674.physics_Main.merge.DAOD_EXOT2.f729_m1646_p2769
#data16_13TeV.00305723.physics_Main.merge.DAOD_EXOT2.f729_m1646_p2769
#data16_13TeV.00305727.physics_Main.merge.DAOD_EXOT2.f730_m1653_p2769
#data16_13TeV.00305735.physics_Main.merge.DAOD_EXOT2.f730_m1653_p2769
#data16_13TeV.00305777.physics_Main.merge.DAOD_EXOT2.f730_m1653_p2769
#data16_13TeV.00305811.physics_Main.merge.DAOD_EXOT2.f730_m1653_p2769
#data16_13TeV.00305920.physics_Main.merge.DAOD_EXOT2.f730_m1653_p2769
#data16_13TeV.00306269.physics_Main.merge.DAOD_EXOT2.f731_m1659_p2769
#data16_13TeV.00306278.physics_Main.merge.DAOD_EXOT2.f732_m1659_p2769
data16_13TeV.00306310.physics_Main.merge.DAOD_EXOT2.f731_m1659_p2769
#data16_13TeV.00306384.physics_Main.merge.DAOD_EXOT2.f733_m1659_p2769
#data16_13TeV.00306419.physics_Main.merge.DAOD_EXOT2.f731_m1659_p2769
data16_13TeV.00306442.physics_Main.merge.DAOD_EXOT2.f731_m1659_p2769
#data16_13TeV.00306448.physics_Main.merge.DAOD_EXOT2.f731_m1659_p2769
#data16_13TeV.00306451.physics_Main.merge.DAOD_EXOT2.f731_m1659_p2769
##data16_13TeV.00306655.physics_Main.merge.DAOD_EXOT2.f735_m1659_p2769
##data16_13TeV.00306657.physics_Main.merge.DAOD_EXOT2.f735_m1659_p2769      


